^D:\GAMEENGINE\ENGINEV03\GAMEENGINE\GAMEENGINE\GLAD\GLAD.C
/c /ZI /JMC /nologo /W3 /WX- /diagnostics:classic /sdl /Od /Oy- /D _CRT_SECURE_NO_WARNINGS /D _MBCS /D _MBCS /Gm- /EHsc /RTC1 /MDd /GS /fp:precise /permissive- /Zc:wchar_t /Zc:forScope /Zc:inline /Fo"DEBUG\\" /Fd"DEBUG\VC141.PDB" /Gd /TC /analyze- /FC D:\GAMEENGINE\ENGINEV03\GAMEENGINE\GAMEENGINE\GLAD\GLAD.C
^D:\GAMEENGINE\ENGINEV03\GAMEENGINE\GAMEENGINE\SOURCE\CORE\MANAGERS\AI\AI_DIRECTOR.CPP
/c /ZI /JMC /nologo /W3 /WX- /diagnostics:classic /sdl /Od /Oy- /D _CRT_SECURE_NO_WARNINGS /D _MBCS /D _MBCS /Gm- /EHsc /RTC1 /MDd /GS /fp:precise /permissive- /Zc:wchar_t /Zc:forScope /Zc:inline /Fo"DEBUG\\" /Fd"DEBUG\VC141.PDB" /Gd /TP /analyze- /FC D:\GAMEENGINE\ENGINEV03\GAMEENGINE\GAMEENGINE\SOURCE\CORE\MANAGERS\AI\AI_DIRECTOR.CPP
^D:\GAMEENGINE\ENGINEV03\GAMEENGINE\GAMEENGINE\SOURCE\CORE\MANAGERS\AI_MANAGER.CPP
/c /ZI /JMC /nologo /W3 /WX- /diagnostics:classic /sdl /Od /Oy- /D _CRT_SECURE_NO_WARNINGS /D _MBCS /D _MBCS /Gm- /EHsc /RTC1 /MDd /GS /fp:precise /permissive- /Zc:wchar_t /Zc:forScope /Zc:inline /Fo"DEBUG\\" /Fd"DEBUG\VC141.PDB" /Gd /TP /analyze- /FC D:\GAMEENGINE\ENGINEV03\GAMEENGINE\GAMEENGINE\SOURCE\CORE\MANAGERS\AI_MANAGER.CPP
^D:\GAMEENGINE\ENGINEV03\GAMEENGINE\GAMEENGINE\SOURCE\CORE\MANAGERS\AI\BEHAVIOUR_MANAGER.CPP
/c /ZI /JMC /nologo /W3 /WX- /diagnostics:classic /sdl /Od /Oy- /D _CRT_SECURE_NO_WARNINGS /D _MBCS /D _MBCS /Gm- /EHsc /RTC1 /MDd /GS /fp:precise /permissive- /Zc:wchar_t /Zc:forScope /Zc:inline /Fo"DEBUG\\" /Fd"DEBUG\VC141.PDB" /Gd /TP /analyze- /FC D:\GAMEENGINE\ENGINEV03\GAMEENGINE\GAMEENGINE\SOURCE\CORE\MANAGERS\AI\BEHAVIOUR_MANAGER.CPP
^D:\GAMEENGINE\ENGINEV03\GAMEENGINE\GAMEENGINE\SOURCE\CORE\MANAGERS\AI\STRATEGY_MANAGER.CPP
/c /ZI /JMC /nologo /W3 /WX- /diagnostics:classic /sdl /Od /Oy- /D _CRT_SECURE_NO_WARNINGS /D _MBCS /D _MBCS /Gm- /EHsc /RTC1 /MDd /GS /fp:precise /permissive- /Zc:wchar_t /Zc:forScope /Zc:inline /Fo"DEBUG\\" /Fd"DEBUG\VC141.PDB" /Gd /TP /analyze- /FC D:\GAMEENGINE\ENGINEV03\GAMEENGINE\GAMEENGINE\SOURCE\CORE\MANAGERS\AI\STRATEGY_MANAGER.CPP
^D:\GAMEENGINE\ENGINEV03\GAMEENGINE\GAMEENGINE\SOURCE\CORE\MANAGERS\AI\WAVE_MANAGER.CPP
/c /ZI /JMC /nologo /W3 /WX- /diagnostics:classic /sdl /Od /Oy- /D _CRT_SECURE_NO_WARNINGS /D _MBCS /D _MBCS /Gm- /EHsc /RTC1 /MDd /GS /fp:precise /permissive- /Zc:wchar_t /Zc:forScope /Zc:inline /Fo"DEBUG\\" /Fd"DEBUG\VC141.PDB" /Gd /TP /analyze- /FC D:\GAMEENGINE\ENGINEV03\GAMEENGINE\GAMEENGINE\SOURCE\CORE\MANAGERS\AI\WAVE_MANAGER.CPP
^D:\GAMEENGINE\ENGINEV03\GAMEENGINE\GAMEENGINE\SOURCE\CORE\RENDERING\CAMERAS\CAMERA.CPP
/c /ZI /JMC /nologo /W3 /WX- /diagnostics:classic /sdl /Od /Oy- /D _CRT_SECURE_NO_WARNINGS /D _MBCS /D _MBCS /Gm- /EHsc /RTC1 /MDd /GS /fp:precise /permissive- /Zc:wchar_t /Zc:forScope /Zc:inline /Fo"DEBUG\\" /Fd"DEBUG\VC141.PDB" /Gd /TP /analyze- /FC D:\GAMEENGINE\ENGINEV03\GAMEENGINE\GAMEENGINE\SOURCE\CORE\RENDERING\CAMERAS\CAMERA.CPP
^D:\GAMEENGINE\ENGINEV03\GAMEENGINE\GAMEENGINE\SOURCE\CORE\UTILS\LIBS\STB_IMAGE.CPP
/c /ZI /JMC /nologo /W3 /WX- /diagnostics:classic /sdl /Od /Oy- /D _CRT_SECURE_NO_WARNINGS /D _MBCS /D _MBCS /Gm- /EHsc /RTC1 /MDd /GS /fp:precise /permissive- /Zc:wchar_t /Zc:forScope /Zc:inline /Fo"DEBUG\\" /Fd"DEBUG\VC141.PDB" /Gd /TP /analyze- /FC D:\GAMEENGINE\ENGINEV03\GAMEENGINE\GAMEENGINE\SOURCE\CORE\UTILS\LIBS\STB_IMAGE.CPP
^D:\GAMEENGINE\ENGINEV03\GAMEENGINE\GAMEENGINE\SOURCE\CORE\UTILS\RESSOURCES\STRING.CPP
/c /ZI /JMC /nologo /W3 /WX- /diagnostics:classic /sdl /Od /Oy- /D _CRT_SECURE_NO_WARNINGS /D _MBCS /D _MBCS /Gm- /EHsc /RTC1 /MDd /GS /fp:precise /permissive- /Zc:wchar_t /Zc:forScope /Zc:inline /Fo"DEBUG\\" /Fd"DEBUG\VC141.PDB" /Gd /TP /analyze- /FC D:\GAMEENGINE\ENGINEV03\GAMEENGINE\GAMEENGINE\SOURCE\CORE\UTILS\RESSOURCES\STRING.CPP
^D:\GAMEENGINE\ENGINEV03\GAMEENGINE\GAMEENGINE\SOURCE\CORE\UTILS\STATIC\CONSOLEINOUT.CPP
/c /ZI /JMC /nologo /W3 /WX- /diagnostics:classic /sdl /Od /Oy- /D _CRT_SECURE_NO_WARNINGS /D _MBCS /D _MBCS /Gm- /EHsc /RTC1 /MDd /GS /fp:precise /permissive- /Zc:wchar_t /Zc:forScope /Zc:inline /Fo"DEBUG\\" /Fd"DEBUG\VC141.PDB" /Gd /TP /analyze- /FC D:\GAMEENGINE\ENGINEV03\GAMEENGINE\GAMEENGINE\SOURCE\CORE\UTILS\STATIC\CONSOLEINOUT.CPP
^D:\GAMEENGINE\ENGINEV03\GAMEENGINE\GAMEENGINE\SOURCE\CORE\UTILS\STATIC\FILEEXPORTER.CPP
/c /ZI /JMC /nologo /W3 /WX- /diagnostics:classic /sdl /Od /Oy- /D _CRT_SECURE_NO_WARNINGS /D _MBCS /D _MBCS /Gm- /EHsc /RTC1 /MDd /GS /fp:precise /permissive- /Zc:wchar_t /Zc:forScope /Zc:inline /Fo"DEBUG\\" /Fd"DEBUG\VC141.PDB" /Gd /TP /analyze- /FC D:\GAMEENGINE\ENGINEV03\GAMEENGINE\GAMEENGINE\SOURCE\CORE\UTILS\STATIC\FILEEXPORTER.CPP
^D:\GAMEENGINE\ENGINEV03\GAMEENGINE\GAMEENGINE\SOURCE\CORE\UTILS\STATIC\MATH\MATRIX.CPP
/c /ZI /JMC /nologo /W3 /WX- /diagnostics:classic /sdl /Od /Oy- /D _CRT_SECURE_NO_WARNINGS /D _MBCS /D _MBCS /Gm- /EHsc /RTC1 /MDd /GS /fp:precise /permissive- /Zc:wchar_t /Zc:forScope /Zc:inline /Fo"DEBUG\\" /Fd"DEBUG\VC141.PDB" /Gd /TP /analyze- /FC D:\GAMEENGINE\ENGINEV03\GAMEENGINE\GAMEENGINE\SOURCE\CORE\UTILS\STATIC\MATH\MATRIX.CPP
^D:\GAMEENGINE\ENGINEV03\GAMEENGINE\GAMEENGINE\SOURCE\CORE\MANAGERS\LIGHTS_MANAGER.CPP
/c /ZI /JMC /nologo /W3 /WX- /diagnostics:classic /sdl /Od /Oy- /D _CRT_SECURE_NO_WARNINGS /D _MBCS /D _MBCS /Gm- /EHsc /RTC1 /MDd /GS /fp:precise /permissive- /Zc:wchar_t /Zc:forScope /Zc:inline /Fo"DEBUG\\" /Fd"DEBUG\VC141.PDB" /Gd /TP /analyze- /FC D:\GAMEENGINE\ENGINEV03\GAMEENGINE\GAMEENGINE\SOURCE\CORE\MANAGERS\LIGHTS_MANAGER.CPP
^D:\GAMEENGINE\ENGINEV03\GAMEENGINE\GAMEENGINE\SOURCE\CORE\RENDERING\LIGH\LIGHT.CPP
/c /ZI /JMC /nologo /W3 /WX- /diagnostics:classic /sdl /Od /Oy- /D _CRT_SECURE_NO_WARNINGS /D _MBCS /D _MBCS /Gm- /EHsc /RTC1 /MDd /GS /fp:precise /permissive- /Zc:wchar_t /Zc:forScope /Zc:inline /Fo"DEBUG\\" /Fd"DEBUG\VC141.PDB" /Gd /TP /analyze- /FC D:\GAMEENGINE\ENGINEV03\GAMEENGINE\GAMEENGINE\SOURCE\CORE\RENDERING\LIGH\LIGHT.CPP
^D:\GAMEENGINE\ENGINEV03\GAMEENGINE\GAMEENGINE\SOURCE\CORE\CONTROLS\FPSCAMERA.CPP
/c /ZI /JMC /nologo /W3 /WX- /diagnostics:classic /sdl /Od /Oy- /D _CRT_SECURE_NO_WARNINGS /D _MBCS /D _MBCS /Gm- /EHsc /RTC1 /MDd /GS /fp:precise /permissive- /Zc:wchar_t /Zc:forScope /Zc:inline /Fo"DEBUG\\" /Fd"DEBUG\VC141.PDB" /Gd /TP /analyze- /FC D:\GAMEENGINE\ENGINEV03\GAMEENGINE\GAMEENGINE\SOURCE\CORE\CONTROLS\FPSCAMERA.CPP
^D:\GAMEENGINE\ENGINEV03\GAMEENGINE\GAMEENGINE\SOURCE\CORE\RENDERING\SHADER\SHADER.CPP
/c /ZI /JMC /nologo /W3 /WX- /diagnostics:classic /sdl /Od /Oy- /D _CRT_SECURE_NO_WARNINGS /D _MBCS /D _MBCS /Gm- /EHsc /RTC1 /MDd /GS /fp:precise /permissive- /Zc:wchar_t /Zc:forScope /Zc:inline /Fo"DEBUG\\" /Fd"DEBUG\VC141.PDB" /Gd /TP /analyze- /FC D:\GAMEENGINE\ENGINEV03\GAMEENGINE\GAMEENGINE\SOURCE\CORE\RENDERING\SHADER\SHADER.CPP
^D:\GAMEENGINE\ENGINEV03\GAMEENGINE\GAMEENGINE\SOURCE\CORE\RENDERING\OBJECTLOADER.CPP
/c /ZI /JMC /nologo /W3 /WX- /diagnostics:classic /sdl /Od /Oy- /D _CRT_SECURE_NO_WARNINGS /D _MBCS /D _MBCS /Gm- /EHsc /RTC1 /MDd /GS /fp:precise /permissive- /Zc:wchar_t /Zc:forScope /Zc:inline /Fo"DEBUG\\" /Fd"DEBUG\VC141.PDB" /Gd /TP /analyze- /FC D:\GAMEENGINE\ENGINEV03\GAMEENGINE\GAMEENGINE\SOURCE\CORE\RENDERING\OBJECTLOADER.CPP
^D:\GAMEENGINE\ENGINEV03\GAMEENGINE\GAMEENGINE\SOURCE\CORE\RENDERING\VBOINDEXER.CPP
/c /ZI /JMC /nologo /W3 /WX- /diagnostics:classic /sdl /Od /Oy- /D _CRT_SECURE_NO_WARNINGS /D _MBCS /D _MBCS /Gm- /EHsc /RTC1 /MDd /GS /fp:precise /permissive- /Zc:wchar_t /Zc:forScope /Zc:inline /Fo"DEBUG\\" /Fd"DEBUG\VC141.PDB" /Gd /TP /analyze- /FC D:\GAMEENGINE\ENGINEV03\GAMEENGINE\GAMEENGINE\SOURCE\CORE\RENDERING\VBOINDEXER.CPP
^D:\GAMEENGINE\ENGINEV03\GAMEENGINE\GAMEENGINE\SOURCE\CORE\MANAGERS\FILE_MANAGER.CPP
/c /ZI /JMC /nologo /W3 /WX- /diagnostics:classic /sdl /Od /Oy- /D _CRT_SECURE_NO_WARNINGS /D _MBCS /D _MBCS /Gm- /EHsc /RTC1 /MDd /GS /fp:precise /permissive- /Zc:wchar_t /Zc:forScope /Zc:inline /Fo"DEBUG\\" /Fd"DEBUG\VC141.PDB" /Gd /TP /analyze- /FC D:\GAMEENGINE\ENGINEV03\GAMEENGINE\GAMEENGINE\SOURCE\CORE\MANAGERS\FILE_MANAGER.CPP
^D:\GAMEENGINE\ENGINEV03\GAMEENGINE\GAMEENGINE\SOURCE\CORE\MANAGERS\SHADER_MANAGER.CPP
/c /ZI /JMC /nologo /W3 /WX- /diagnostics:classic /sdl /Od /Oy- /D _CRT_SECURE_NO_WARNINGS /D _MBCS /D _MBCS /Gm- /EHsc /RTC1 /MDd /GS /fp:precise /permissive- /Zc:wchar_t /Zc:forScope /Zc:inline /Fo"DEBUG\\" /Fd"DEBUG\VC141.PDB" /Gd /TP /analyze- /FC D:\GAMEENGINE\ENGINEV03\GAMEENGINE\GAMEENGINE\SOURCE\CORE\MANAGERS\SHADER_MANAGER.CPP
^D:\GAMEENGINE\ENGINEV03\GAMEENGINE\GAMEENGINE\SOURCE\CORE\UTILS\STATIC\FILEIMPORTER.CPP
/c /ZI /JMC /nologo /W3 /WX- /diagnostics:classic /sdl /Od /Oy- /D _CRT_SECURE_NO_WARNINGS /D _MBCS /D _MBCS /Gm- /EHsc /RTC1 /MDd /GS /fp:precise /permissive- /Zc:wchar_t /Zc:forScope /Zc:inline /Fo"DEBUG\\" /Fd"DEBUG\VC141.PDB" /Gd /TP /analyze- /FC D:\GAMEENGINE\ENGINEV03\GAMEENGINE\GAMEENGINE\SOURCE\CORE\UTILS\STATIC\FILEIMPORTER.CPP
^D:\GAMEENGINE\ENGINEV03\GAMEENGINE\GAMEENGINE\SOURCE\CORE\UTILS\STATIC\TEXTURELOADER.CPP
/c /ZI /JMC /nologo /W3 /WX- /diagnostics:classic /sdl /Od /Oy- /D _CRT_SECURE_NO_WARNINGS /D _MBCS /D _MBCS /Gm- /EHsc /RTC1 /MDd /GS /fp:precise /permissive- /Zc:wchar_t /Zc:forScope /Zc:inline /Fo"DEBUG\\" /Fd"DEBUG\VC141.PDB" /Gd /TP /analyze- /FC D:\GAMEENGINE\ENGINEV03\GAMEENGINE\GAMEENGINE\SOURCE\CORE\UTILS\STATIC\TEXTURELOADER.CPP
^D:\GAMEENGINE\ENGINEV03\GAMEENGINE\GAMEENGINE\SOURCE\CORE\MANAGERS\CONTROL_MANAGER.CPP
/c /ZI /JMC /nologo /W3 /WX- /diagnostics:classic /sdl /Od /Oy- /D _CRT_SECURE_NO_WARNINGS /D _MBCS /D _MBCS /Gm- /EHsc /RTC1 /MDd /GS /fp:precise /permissive- /Zc:wchar_t /Zc:forScope /Zc:inline /Fo"DEBUG\\" /Fd"DEBUG\VC141.PDB" /Gd /TP /analyze- /FC D:\GAMEENGINE\ENGINEV03\GAMEENGINE\GAMEENGINE\SOURCE\CORE\MANAGERS\CONTROL_MANAGER.CPP
^D:\GAMEENGINE\ENGINEV03\GAMEENGINE\GAMEENGINE\SOURCE\CORE\RENDERING\MODELS\MODEL.CPP
/c /ZI /JMC /nologo /W3 /WX- /diagnostics:classic /sdl /Od /Oy- /D _CRT_SECURE_NO_WARNINGS /D _MBCS /D _MBCS /Gm- /EHsc /RTC1 /MDd /GS /fp:precise /permissive- /Zc:wchar_t /Zc:forScope /Zc:inline /Fo"DEBUG\\" /Fd"DEBUG\VC141.PDB" /Gd /TP /analyze- /FC D:\GAMEENGINE\ENGINEV03\GAMEENGINE\GAMEENGINE\SOURCE\CORE\RENDERING\MODELS\MODEL.CPP
^D:\GAMEENGINE\ENGINEV03\GAMEENGINE\GAMEENGINE\SOURCE\CORE\RENDERING\MODELS\OBJECT.CPP
/c /ZI /JMC /nologo /W3 /WX- /diagnostics:classic /sdl /Od /Oy- /D _CRT_SECURE_NO_WARNINGS /D _MBCS /D _MBCS /Gm- /EHsc /RTC1 /MDd /GS /fp:precise /permissive- /Zc:wchar_t /Zc:forScope /Zc:inline /Fo"DEBUG\\" /Fd"DEBUG\VC141.PDB" /Gd /TP /analyze- /FC D:\GAMEENGINE\ENGINEV03\GAMEENGINE\GAMEENGINE\SOURCE\CORE\RENDERING\MODELS\OBJECT.CPP
^D:\GAMEENGINE\ENGINEV03\GAMEENGINE\GAMEENGINE\SOURCE\CORE\RENDERING\MODELS\QUAD.CPP
/c /ZI /JMC /nologo /W3 /WX- /diagnostics:classic /sdl /Od /Oy- /D _CRT_SECURE_NO_WARNINGS /D _MBCS /D _MBCS /Gm- /EHsc /RTC1 /MDd /GS /fp:precise /permissive- /Zc:wchar_t /Zc:forScope /Zc:inline /Fo"DEBUG\\" /Fd"DEBUG\VC141.PDB" /Gd /TP /analyze- /FC D:\GAMEENGINE\ENGINEV03\GAMEENGINE\GAMEENGINE\SOURCE\CORE\RENDERING\MODELS\QUAD.CPP
^D:\GAMEENGINE\ENGINEV03\GAMEENGINE\GAMEENGINE\SOURCE\CORE\RENDERING\MODELS\TRIANGLE.CPP
/c /ZI /JMC /nologo /W3 /WX- /diagnostics:classic /sdl /Od /Oy- /D _CRT_SECURE_NO_WARNINGS /D _MBCS /D _MBCS /Gm- /EHsc /RTC1 /MDd /GS /fp:precise /permissive- /Zc:wchar_t /Zc:forScope /Zc:inline /Fo"DEBUG\\" /Fd"DEBUG\VC141.PDB" /Gd /TP /analyze- /FC D:\GAMEENGINE\ENGINEV03\GAMEENGINE\GAMEENGINE\SOURCE\CORE\RENDERING\MODELS\TRIANGLE.CPP
^D:\GAMEENGINE\ENGINEV03\GAMEENGINE\GAMEENGINE\SOURCE\CORE\ENGINESTARTER.CPP
/c /ZI /JMC /nologo /W3 /WX- /diagnostics:classic /sdl /Od /Oy- /D _CRT_SECURE_NO_WARNINGS /D _MBCS /D _MBCS /Gm- /EHsc /RTC1 /MDd /GS /fp:precise /permissive- /Zc:wchar_t /Zc:forScope /Zc:inline /Fo"DEBUG\\" /Fd"DEBUG\VC141.PDB" /Gd /TP /analyze- /FC D:\GAMEENGINE\ENGINEV03\GAMEENGINE\GAMEENGINE\SOURCE\CORE\ENGINESTARTER.CPP
^D:\GAMEENGINE\ENGINEV03\GAMEENGINE\GAMEENGINE\SOURCE\CORE\MANAGERS\MODEL_MANAGER.CPP
/c /ZI /JMC /nologo /W3 /WX- /diagnostics:classic /sdl /Od /Oy- /D _CRT_SECURE_NO_WARNINGS /D _MBCS /D _MBCS /Gm- /EHsc /RTC1 /MDd /GS /fp:precise /permissive- /Zc:wchar_t /Zc:forScope /Zc:inline /Fo"DEBUG\\" /Fd"DEBUG\VC141.PDB" /Gd /TP /analyze- /FC D:\GAMEENGINE\ENGINEV03\GAMEENGINE\GAMEENGINE\SOURCE\CORE\MANAGERS\MODEL_MANAGER.CPP
^D:\GAMEENGINE\ENGINEV03\GAMEENGINE\GAMEENGINE\SOURCE\CORE\MANAGERS\SCENE_MANAGER.CPP
/c /ZI /JMC /nologo /W3 /WX- /diagnostics:classic /sdl /Od /Oy- /D _CRT_SECURE_NO_WARNINGS /D _MBCS /D _MBCS /Gm- /EHsc /RTC1 /MDd /GS /fp:precise /permissive- /Zc:wchar_t /Zc:forScope /Zc:inline /Fo"DEBUG\\" /Fd"DEBUG\VC141.PDB" /Gd /TP /analyze- /FC D:\GAMEENGINE\ENGINEV03\GAMEENGINE\GAMEENGINE\SOURCE\CORE\MANAGERS\SCENE_MANAGER.CPP
^D:\GAMEENGINE\ENGINEV03\GAMEENGINE\GAMEENGINE\SOURCE\MAIN.CPP
/c /ZI /JMC /nologo /W3 /WX- /diagnostics:classic /sdl /Od /Oy- /D _CRT_SECURE_NO_WARNINGS /D _MBCS /D _MBCS /Gm- /EHsc /RTC1 /MDd /GS /fp:precise /permissive- /Zc:wchar_t /Zc:forScope /Zc:inline /Fo"DEBUG\\" /Fd"DEBUG\VC141.PDB" /Gd /TP /analyze- /FC D:\GAMEENGINE\ENGINEV03\GAMEENGINE\GAMEENGINE\SOURCE\MAIN.CPP
^D:\GAMEENGINE\ENGINEV03\GAMEENGINE\GAMEENGINE\SOURCE\CORE\INIT\INIT_GLFW.CPP
/c /ZI /JMC /nologo /W3 /WX- /diagnostics:classic /sdl /Od /Oy- /D _CRT_SECURE_NO_WARNINGS /D _MBCS /D _MBCS /Gm- /EHsc /RTC1 /MDd /GS /fp:precise /permissive- /Zc:wchar_t /Zc:forScope /Zc:inline /Fo"DEBUG\\" /Fd"DEBUG\VC141.PDB" /Gd /TP /analyze- /FC D:\GAMEENGINE\ENGINEV03\GAMEENGINE\GAMEENGINE\SOURCE\CORE\INIT\INIT_GLFW.CPP
^D:\GAMEENGINE\ENGINEV03\GAMEENGINE\GAMEENGINE\SOURCE\CORE\RENDERING\MODELS\CUBEINDEX.CPP
/c /ZI /JMC /nologo /W3 /WX- /diagnostics:classic /sdl /Od /Oy- /D _CRT_SECURE_NO_WARNINGS /D _MBCS /D _MBCS /Gm- /EHsc /RTC1 /MDd /GS /fp:precise /permissive- /Zc:wchar_t /Zc:forScope /Zc:inline /Fo"DEBUG\\" /Fd"DEBUG\VC141.PDB" /Gd /TP /analyze- /FC D:\GAMEENGINE\ENGINEV03\GAMEENGINE\GAMEENGINE\SOURCE\CORE\RENDERING\MODELS\CUBEINDEX.CPP
^D:\GAMEENGINE\ENGINEV03\GAMEENGINE\GAMEENGINE\SOURCE\CORE\RENDERING\MODELS\MESH.CPP
/c /ZI /JMC /nologo /W3 /WX- /diagnostics:classic /sdl /Od /Oy- /D _CRT_SECURE_NO_WARNINGS /D _MBCS /D _MBCS /Gm- /EHsc /RTC1 /MDd /GS /fp:precise /permissive- /Zc:wchar_t /Zc:forScope /Zc:inline /Fo"DEBUG\\" /Fd"DEBUG\VC141.PDB" /Gd /TP /analyze- /FC D:\GAMEENGINE\ENGINEV03\GAMEENGINE\GAMEENGINE\SOURCE\CORE\RENDERING\MODELS\MESH.CPP
^D:\GAMEENGINE\ENGINEV03\GAMEENGINE\GAMEENGINE\SOURCE\CORE\RENDERING\MODELS\STATICMESH.CPP
/c /ZI /JMC /nologo /W3 /WX- /diagnostics:classic /sdl /Od /Oy- /D _CRT_SECURE_NO_WARNINGS /D _MBCS /D _MBCS /Gm- /EHsc /RTC1 /MDd /GS /fp:precise /permissive- /Zc:wchar_t /Zc:forScope /Zc:inline /Fo"DEBUG\\" /Fd"DEBUG\VC141.PDB" /Gd /TP /analyze- /FC D:\GAMEENGINE\ENGINEV03\GAMEENGINE\GAMEENGINE\SOURCE\CORE\RENDERING\MODELS\STATICMESH.CPP
^D:\GAMEENGINE\ENGINEV03\GAMEENGINE\GAMEENGINE\SOURCE\CORE\MANAGERS\MATERIAL_MANAGER.CPP
/c /ZI /JMC /nologo /W3 /WX- /diagnostics:classic /sdl /Od /Oy- /D _CRT_SECURE_NO_WARNINGS /D _MBCS /D _MBCS /Gm- /EHsc /RTC1 /MDd /GS /fp:precise /permissive- /Zc:wchar_t /Zc:forScope /Zc:inline /Fo"DEBUG\\" /Fd"DEBUG\VC141.PDB" /Gd /TP /analyze- /FC D:\GAMEENGINE\ENGINEV03\GAMEENGINE\GAMEENGINE\SOURCE\CORE\MANAGERS\MATERIAL_MANAGER.CPP
